---
source: testing_helper/src/debug_packet.rs
description: Testing default state with various MQTT packets
expression: "<rumqttc::Publish as Into<DisplayPacket>>::into(packet.1)"
info:
  info:
    original_state:
      overall_lights_state: "Off"
      last_shelly_toggle_instant: 0
      last_shelly_rule_timer_sent: 0
      last_shelly_power1_state:
        last_contact: 0
        power_state: "ON"
      last_lights_state:
        zigbee2mqtt/light/kitchen/port/back/spot: "last_state_change: 0, state: Unknown, last_heart_beat 0, brightness: 128, color_temp: 153, color_hsb: HsColour { hue: 0, saturation: 100 }"
        zigbee2mqtt/light/kitchen/port/front/spot: "last_state_change: 0, state: Unknown, last_heart_beat 0, brightness: 128, color_temp: 153, color_hsb: HsColour { hue: 0, saturation: 100 }"
        zigbee2mqtt/light/kitchen/port/middle/spot: "last_state_change: 0, state: Unknown, last_heart_beat 0, brightness: 128, color_temp: 153, color_hsb: HsColour { hue: 0, saturation: 100 }"
        zigbee2mqtt/light/kitchen/starboard/back/spot: "last_state_change: 0, state: Unknown, last_heart_beat 0, brightness: 128, color_temp: 153, color_hsb: HsColour { hue: 0, saturation: 100 }"
        zigbee2mqtt/light/starboard_kitchen: "last_state_change: 0, state: Unknown, last_heart_beat 0, brightness: 128, color_temp: 153, color_hsb: HsColour { hue: 0, saturation: 100 }"
    mqtt_packet_received:
      dup: false
      qos: 0
      retain: false
      topic: shelly/sh6/tele/SENSOR
      pkid: 0
      payload: "{\n    \"ANALOG\": { \"Temperature\": 40.9 },\n    \"ENERGY\": {\n        \"ApparentPower\": [ 29, 0 ],\n        \"Current\": [ 0.128, 0 ],\n        \"Factor\": [ 0.6, 0 ],\n        \"Frequency\": 50,\n        \"Period\": 1,\n        \"Power\": [ 17, 0 ],\n        \"ReactivePower\": [ 22, 0 ],\n        \"Today\": 0.168,\n        \"Total\": 8.724,\n        \"TotalStartTime\": \"2022-12-13T22:18:02\",\n        \"Voltage\": 226,\n        \"Yesterday\": 0.42\n    },\n    \"Switch1\": \"OFF\",\n    \"Switch2\": \"OFF\",\n    \"TempUnit\": \"C\",\n    \"Time\": \"2023-02-22T09:37:38\"\n}"
  order_num: 2
---
topic: zigbee2mqtt/light/kitchen/port/back/spot/set
qos: AtLeastOnce
retain: false
payload: "off"

