---
source: testing_helper/src/debug_packet.rs
description: Testing default state with various MQTT packets
expression: packet_num
info:
  original_state:
    overall_lights_state: Unknown
    last_shelly_toggle_instant: 0
    last_shelly_rule_timer_sent: 0
    last_shelly_power1_state:
      last_contact: 0
      power_state: "ON"
    last_lights_state:
      zigbee2mqtt/light/bathroom/port/back/spot: "last_state_change: 0, state: Unknown, last_heart_beat 0, brightness: 128, color_temp: 153, color_hsb: HsColour { hue: 0, saturation: 100 }"
      zigbee2mqtt/light/bathroom/port/front/spot: "last_state_change: 0, state: Unknown, last_heart_beat 0, brightness: 128, color_temp: 153, color_hsb: HsColour { hue: 0, saturation: 100 }"
      zigbee2mqtt/light/bathroom/starboard/back/spot: "last_state_change: 0, state: Unknown, last_heart_beat 0, brightness: 128, color_temp: 153, color_hsb: HsColour { hue: 0, saturation: 100 }"
      zigbee2mqtt/light/bathroom/starboard/front/spot: "last_state_change: 0, state: Unknown, last_heart_beat 0, brightness: 128, color_temp: 153, color_hsb: HsColour { hue: 0, saturation: 100 }"
      zigbee2mqtt/light/bathroom/starboard/middle/spot: "last_state_change: 0, state: Unknown, last_heart_beat 0, brightness: 128, color_temp: 153, color_hsb: HsColour { hue: 0, saturation: 100 }"
  mqtt_packet_received:
    dup: false
    qos: 0
    retain: false
    topic: shelly/sh4/stat/RESULT
    pkid: 0
    payload: "\n    {\"Switch1\": { \"Action\": \"TOGGLE\" } }\n    "
---
5
