---
source: testing_helper/src/debug_packet.rs
description: Testing default state with various MQTT packets
expression: "<rumqttc::Publish as Into<DisplayPacket>>::into(packet.1)"
info:
  info:
    original_state:
      overall_lights_state: Unknown
      last_shelly_toggle_instant: 0
      last_shelly_rule_timer_sent: 0
      last_shelly_power1_state:
        last_contact: 0
        power_state: "ON"
      last_lights_state:
        zigbee2mqtt/light/engineroom/port/spot: "last_state_change: 0, state: Unknown, last_heart_beat 0, brightness: 128, color_temp: 153, color_hsb: HsColour { hue: 0, saturation: 100 }"
        zigbee2mqtt/light/engineroom/starboard/spot: "last_state_change: 0, state: Unknown, last_heart_beat 0, brightness: 128, color_temp: 153, color_hsb: HsColour { hue: 0, saturation: 100 }"
    mqtt_packet_received:
      dup: false
      qos: 0
      retain: false
      topic: shelly/sh5/stat/RESULT
      pkid: 0
      payload: "\n    {\"Switch1\": { \"Action\": \"TOGGLE\" } }\n    "
  order_num: 2
---
topic: zigbee2mqtt/light/engineroom/starboard/spot/set
qos: AtLeastOnce
retain: false
payload: "off"

