---
source: testing_helper/src/debug_packet.rs
description: Testing default state with various MQTT packets
expression: packet_num
info:
  original_state:
    lights_brightness: 128
    lights_warmth: 153
    lights_hue: 0
    last_user_input: 0
    current_mode: Brightness
    last_lights_state:
      zigbee2mqtt/light/bathroom/port/back/spot: "last_state_change: 0, state: Unknown, last_heart_beat 0, brightness: 128, color_temp: 153, color_hsb: HsColour { hue: 0, saturation: 100 }"
      zigbee2mqtt/light/bathroom/port/front/spot: "last_state_change: 0, state: Unknown, last_heart_beat 0, brightness: 128, color_temp: 153, color_hsb: HsColour { hue: 0, saturation: 100 }"
      zigbee2mqtt/light/bathroom/starboard/back/spot: "last_state_change: 0, state: Unknown, last_heart_beat 0, brightness: 128, color_temp: 153, color_hsb: HsColour { hue: 0, saturation: 100 }"
      zigbee2mqtt/light/bathroom/starboard/front/spot: "last_state_change: 0, state: Unknown, last_heart_beat 0, brightness: 128, color_temp: 153, color_hsb: HsColour { hue: 0, saturation: 100 }"
      zigbee2mqtt/light/bathroom/starboard/middle/spot: "last_state_change: 0, state: Unknown, last_heart_beat 0, brightness: 128, color_temp: 153, color_hsb: HsColour { hue: 0, saturation: 100 }"
      zigbee2mqtt/light/dinette/port/back/spot: "last_state_change: 0, state: Unknown, last_heart_beat 0, brightness: 128, color_temp: 153, color_hsb: HsColour { hue: 0, saturation: 100 }"
      zigbee2mqtt/light/dinette/port/front/spot: "last_state_change: 0, state: Unknown, last_heart_beat 0, brightness: 128, color_temp: 153, color_hsb: HsColour { hue: 0, saturation: 100 }"
      zigbee2mqtt/light/dinette/starboard/back/spot: "last_state_change: 0, state: Unknown, last_heart_beat 0, brightness: 128, color_temp: 153, color_hsb: HsColour { hue: 0, saturation: 100 }"
      zigbee2mqtt/light/dinette/starboard/front/spot: "last_state_change: 0, state: Unknown, last_heart_beat 0, brightness: 128, color_temp: 153, color_hsb: HsColour { hue: 0, saturation: 100 }"
      zigbee2mqtt/light/engineroom/port/spot: "last_state_change: 0, state: Unknown, last_heart_beat 0, brightness: 128, color_temp: 153, color_hsb: HsColour { hue: 0, saturation: 100 }"
      zigbee2mqtt/light/engineroom/starboard/spot: "last_state_change: 0, state: Unknown, last_heart_beat 0, brightness: 128, color_temp: 153, color_hsb: HsColour { hue: 0, saturation: 100 }"
      zigbee2mqtt/light/frontroom/port/back/spot: "last_state_change: 0, state: Unknown, last_heart_beat 0, brightness: 128, color_temp: 153, color_hsb: HsColour { hue: 0, saturation: 100 }"
      zigbee2mqtt/light/frontroom/port/front/spot: "last_state_change: 0, state: Unknown, last_heart_beat 0, brightness: 128, color_temp: 153, color_hsb: HsColour { hue: 0, saturation: 100 }"
      zigbee2mqtt/light/frontroom/port/middle/spot: "last_state_change: 0, state: Unknown, last_heart_beat 0, brightness: 128, color_temp: 153, color_hsb: HsColour { hue: 0, saturation: 100 }"
      zigbee2mqtt/light/frontroom/starboard/back/spot: "last_state_change: 0, state: Unknown, last_heart_beat 0, brightness: 128, color_temp: 153, color_hsb: HsColour { hue: 0, saturation: 100 }"
      zigbee2mqtt/light/frontroom/starboard/front/spot: "last_state_change: 0, state: Unknown, last_heart_beat 0, brightness: 128, color_temp: 153, color_hsb: HsColour { hue: 0, saturation: 100 }"
      zigbee2mqtt/light/frontroom/starboard/middle/spot: "last_state_change: 0, state: Unknown, last_heart_beat 0, brightness: 128, color_temp: 153, color_hsb: HsColour { hue: 0, saturation: 100 }"
      zigbee2mqtt/light/kitchen/port/back/spot: "last_state_change: 0, state: Unknown, last_heart_beat 0, brightness: 128, color_temp: 153, color_hsb: HsColour { hue: 0, saturation: 100 }"
      zigbee2mqtt/light/kitchen/port/front/spot: "last_state_change: 0, state: Unknown, last_heart_beat 0, brightness: 128, color_temp: 153, color_hsb: HsColour { hue: 0, saturation: 100 }"
      zigbee2mqtt/light/kitchen/port/middle/spot: "last_state_change: 0, state: Unknown, last_heart_beat 0, brightness: 128, color_temp: 153, color_hsb: HsColour { hue: 0, saturation: 100 }"
      zigbee2mqtt/light/kitchen/starboard/back/spot: "last_state_change: 0, state: Unknown, last_heart_beat 0, brightness: 128, color_temp: 153, color_hsb: HsColour { hue: 0, saturation: 100 }"
      zigbee2mqtt/light/spot/bedroom_port_back: "last_state_change: 0, state: Unknown, last_heart_beat 0, brightness: 128, color_temp: 153, color_hsb: HsColour { hue: 0, saturation: 100 }"
      zigbee2mqtt/light/spot/bedroom_port_front: "last_state_change: 0, state: Unknown, last_heart_beat 0, brightness: 128, color_temp: 153, color_hsb: HsColour { hue: 0, saturation: 100 }"
      zigbee2mqtt/light/spot/bedroom_starboard_back: "last_state_change: 0, state: Unknown, last_heart_beat 0, brightness: 128, color_temp: 153, color_hsb: HsColour { hue: 0, saturation: 100 }"
      zigbee2mqtt/light/spot/bedroom_starboard_front: "last_state_change: 0, state: Unknown, last_heart_beat 0, brightness: 128, color_temp: 153, color_hsb: HsColour { hue: 0, saturation: 100 }"
      zigbee2mqtt/light/spot/bedroom_starboard_middle: "last_state_change: 0, state: Unknown, last_heart_beat 0, brightness: 128, color_temp: 153, color_hsb: HsColour { hue: 0, saturation: 100 }"
      zigbee2mqtt/light/starboard_kitchen: "last_state_change: 0, state: Unknown, last_heart_beat 0, brightness: 128, color_temp: 153, color_hsb: HsColour { hue: 0, saturation: 100 }"
  mqtt_packet_received:
    dup: false
    qos: 0
    retain: false
    topic: zigbee2mqtt/0x001788010d349f91
    pkid: 0
    payload: "            {\n                                    \"battery\":100,\n                                    \"linkquality\": 255,\n                                    \"action\" : \"dial_rotate_left_slow\"\n\n                                } "
---
0
