---
source: testing_helper/src/debug_packet.rs
description: Testing default state with various MQTT packets
expression: packet_num
info:
  original_state:
    overall_lights_state: "On"
    last_shelly_toggle_instant: 0
    last_shelly_rule_timer_sent: 0
    last_shelly_power1_state:
      last_contact: 0
      power_state: "ON"
    last_lights_state:
      zigbee2mqtt/light/kitchen/port/back/spot: "last_state_change: 0, state: Unknown, last_heart_beat 0, brightness: 128, color_temp: 153, color_hsb: HsColour { hue: 0, saturation: 100 }"
      zigbee2mqtt/light/kitchen/port/front/spot: "last_state_change: 0, state: Unknown, last_heart_beat 0, brightness: 128, color_temp: 153, color_hsb: HsColour { hue: 0, saturation: 100 }"
      zigbee2mqtt/light/kitchen/port/middle/spot: "last_state_change: 0, state: Unknown, last_heart_beat 0, brightness: 128, color_temp: 153, color_hsb: HsColour { hue: 0, saturation: 100 }"
      zigbee2mqtt/light/kitchen/starboard/back/spot: "last_state_change: 0, state: Unknown, last_heart_beat 0, brightness: 128, color_temp: 153, color_hsb: HsColour { hue: 0, saturation: 100 }"
      zigbee2mqtt/light/starboard_kitchen: "last_state_change: 0, state: Unknown, last_heart_beat 0, brightness: 128, color_temp: 153, color_hsb: HsColour { hue: 0, saturation: 100 }"
  mqtt_packet_received:
    dup: false
    qos: 0
    retain: false
    topic: zigbee2mqtt/light/kitchen/port/back/spot
    pkid: 0
    payload: "\n        {\n            \"brightness\": 254,\n            \"color\": {\n                \"hue\":212,\"saturation\":10,\"x\":0.3131,\"y\":0.3232\n            },\n            \"color_mode\":\"color_temp\",\n            \"color_temp\":153,\n            \"last_seen\":\"2023-02-17T11:29:23.708Z\",\n            \"linkquality\":231,\n            \"state\":\"OFF\",\n            \"update\":{\"state\":\"available\"},\n            \"update_available\":true\n        }\n    "
---
0
